shift.vcd
$date
	Tue Mar 24 18:23:33 2026
$end
$version
	Icarus Verilog
$end
$timescale
	1ps
$end
$scope module shift_tb $end
$var wire 8 ! x4 [7:0] $end
$var wire 8 " x3 [7:0] $end
$var wire 8 # x2 [7:0] $end
$var wire 8 $ x1 [7:0] $end
$var wire 8 % x0 [7:0] $end
$var reg 1 & clk $end
$var reg 8 ' data_in [7:0] $end
$var reg 1 ( enable $end
$var reg 1 ) rst $end
$var integer 32 * i [31:0] $end
$scope module uut $end
$var wire 1 & clk $end
$var wire 8 + data_in [7:0] $end
$var wire 1 ( enable $end
$var wire 1 ) rst $end
$var wire 8 , x0 [7:0] $end
$var wire 8 - x1 [7:0] $end
$var wire 8 . x2 [7:0] $end
$var wire 8 / x3 [7:0] $end
$var wire 8 0 x4 [7:0] $end
$var integer 32 1 i [31:0] $end
$upscope $end
$upscope $end
$enddefinitions $end
$comment Show the parameter values. $end
$dumpall
$end
#0
$dumpvars
b101 1
b0 0
b0 /
b0 .
b0 -
b0 ,
b0 +
bx *
1)
0(
b0 '
0&
b0 %
b0 $
b0 #
b0 "
b0 !
$end
#5000
b101 1
1&
#10000
0&
b1 '
b1 +
b1 *
1(
0)
#15000
b1 %
b1 ,
1&
#20000
0&
b10 '
b10 +
b10 *
#25000
b10 %
b10 ,
b1 $
b1 -
1&
#30000
0&
b11 '
b11 +
b11 *
#35000
b11 %
b11 ,
b10 $
b10 -
b1 #
b1 .
1&
#40000
0&
b100 '
b100 +
b100 *
#45000
b100 %
b100 ,
b11 $
b11 -
b10 #
b10 .
b1 "
b1 /
1&
#50000
0&
b101 '
b101 +
b101 *
#55000
b101 %
b101 ,
b100 $
b100 -
b11 #
b11 .
b10 "
b10 /
b1 !
b1 0
1&
#60000
0&
b110 '
b110 +
b110 *
#65000
b110 %
b110 ,
b101 $
b101 -
b100 #
b100 .
b11 "
b11 /
b10 !
b10 0
1&
#70000
0&
b111 '
b111 +
b111 *
#75000
b111 %
b111 ,
b110 $
b110 -
b101 #
b101 .
b100 "
b100 /
b11 !
b11 0
1&
#80000
0&
b1000 '
b1000 +
b1000 *
#85000
b1000 %
b1000 ,
b111 $
b111 -
b110 #
b110 .
b101 "
b101 /
b100 !
b100 0
1&
#90000
0&
b1001 *
